{
    "experiments": [
    {
        "project_name": "stroke_predictor_v2",
        "pipeline_name": "feature_engg_and_classifier_pipeline",
        "pipeline_version": 1,
        "run_name": "stroke_predictor_v2_1a"
    },
    {
        "project_name": "stroke_predictor_v2",
        "pipeline_version": 1,
        "pipeline_name": "feature_engg_and_classifier_pipeline",
        "run_name": "stroke_predictor_v2_1b"
    }
    ]
}
